verify/tb_pmu.vcd
$version Generated by VerilatedVcd $end
$timescale 1ps $end
 $scope module tb_pmu $end
  $var wire 32 H SYNC_HOLD [31:0] $end
  $var wire 1 F clk $end
  $var wire 1 # reset_n $end
  $var wire 1 $ req_idle $end
  $var wire 1 % req_sleep $end
  $var wire 1 & req_off $end
  $var wire 1 ' wake_up $end
  $var wire 1 ( pwr_stable $end
  $var wire 1 ) clk_stable $end
  $var wire 1 * retention_ready $end
  $var wire 1 , clk_gate_en $end
  $var wire 1 - pwr_gate_en $end
  $var wire 1 . reset_ctrl $end
  $var wire 1 / retention_en $end
  $var wire 1 0 retention_save $end
  $var wire 1 1 retention_restore $end
  $var wire 2 2 dvfs_ctrl [1:0] $end
  $var wire 2 3 pwr_state [1:0] $end
  $var wire 1 4 seq_busy $end
  $var wire 1 5 error $end
  $var wire 7 6 curr_state_raw [6:0] $end
  $var wire 32 + test_count [31:0] $end
  $var wire 32 G error_count [31:0] $end
  $scope module dut $end
   $var wire 1 F clk $end
   $var wire 1 # reset_n $end
   $var wire 1 $ req_idle $end
   $var wire 1 % req_sleep $end
   $var wire 1 & req_off $end
   $var wire 1 ' wake_up $end
   $var wire 1 ( pwr_stable $end
   $var wire 1 ) clk_stable $end
   $var wire 1 * retention_ready $end
   $var wire 1 , clk_gate_en $end
   $var wire 1 - pwr_gate_en $end
   $var wire 1 / retention_en $end
   $var wire 1 0 retention_save $end
   $var wire 1 1 retention_restore $end
   $var wire 2 2 dvfs_ctrl [1:0] $end
   $var wire 1 . reset_ctrl $end
   $var wire 2 3 pwr_state [1:0] $end
   $var wire 1 4 seq_busy $end
   $var wire 1 5 error $end
   $var wire 32 I N_STATES [31:0] $end
   $var wire 7 J ACTIVE [6:0] $end
   $var wire 7 K IDLE [6:0] $end
   $var wire 7 L SLEEP [6:0] $end
   $var wire 7 M OFF [6:0] $end
   $var wire 7 N SLEEP_ENT [6:0] $end
   $var wire 7 O OFF_ENT [6:0] $end
   $var wire 7 P WAKE_UP [6:0] $end
   $var wire 7 6 curr_state [6:0] $end
   $var wire 7 7 next_state [6:0] $end
   $var wire 4 8 req_sync1 [3:0] $end
   $var wire 4 9 req_sync2 [3:0] $end
   $var wire 3 : sts_sync1 [2:0] $end
   $var wire 3 ; sts_sync2 [2:0] $end
   $var wire 1 < req_idle_s $end
   $var wire 1 = req_sleep_s $end
   $var wire 1 > req_off_s $end
   $var wire 1 ? wake_up_s $end
   $var wire 1 @ pwr_stable_s $end
   $var wire 1 A clk_stable_s $end
   $var wire 1 B ret_ready_s $end
   $var wire 8 C seq_timer [7:0] $end
   $var wire 1 D next_error $end
   $var wire 1 E next_seq_busy $end
  $upscope $end
 $upscope $end
$enddefinitions $end


#0
0#
0$
0%
0&
0'
1(
1)
1*
b00000000000000000000000000000000 +
0,
0-
0.
0/
00
01
b00 2
b00 3
04
05
b0000000 6
b0000001 7
b0000 8
b0000 9
b000 :
b000 ;
0<
0=
0>
0?
0@
0A
0B
b00000000 C
1D
0E
0F
b00000000000000000000000000000000 G
b00000000000000000000000000000101 H
b00000000000000000000000000000111 I
b0000001 J
b0000010 K
b0000100 L
b0001000 M
b0010000 N
b0100000 O
b1000000 P
#5000
b11 2
b0000001 6
0D
1F
#10000
0F
#15000
1F
#20000
0F
#25000
1F
#30000
0F
#35000
1F
#40000
0F
#45000
1F
#50000
1#
0F
#55000
b111 :
b00000001 C
1F
#60000
0F
#65000
b111 ;
1@
1A
1B
b00000010 C
1F
#70000
0F
#75000
b00000011 C
1F
#80000
0F
#85000
0#
b00000000000000000000000000001000 +
b000 :
b000 ;
0@
0A
0B
b00000000 C
1F
#90000
0F
#95000
1F
#100000
0F
#105000
1F
#110000
0F
#115000
1F
#120000
0F
#125000
1F
#130000
0F
#135000
1F
#140000
1#
0F
#145000
b111 :
b00000001 C
1F
#150000
0F
#155000
b111 ;
1@
1A
1B
b00000010 C
1F
#160000
0F
#165000
b00000011 C
1F
#170000
0F
#175000
b00000100 C
1F
#180000
1$
0F
#185000
b1000 8
b00000101 C
1F
#190000
0F
#195000
b0000010 7
b1000 9
1<
b00000110 C
1F
#200000
0F
#205000
1,
b01 3
b0000010 6
b00000000 C
1F
#210000
0F
#215000
b00000001 C
1F
#220000
0F
#225000
b00000010 C
1F
#230000
0$
0F
#235000
b0000 8
b00000011 C
1F
#240000
0F
#245000
0#
b00000000000000000000000000001101 +
0,
b00 3
b0000001 6
b0000001 7
b0000 9
b000 :
b000 ;
0<
0@
0A
0B
b00000000 C
1F
#250000
0F
#255000
1F
#260000
0F
#265000
1F
#270000
0F
#275000
1F
#280000
0F
#285000
1F
#290000
0F
#295000
1F
#300000
1#
0F
#305000
b111 :
b00000001 C
1F
#310000
0F
#315000
b111 ;
1@
1A
1B
b00000010 C
1F
#320000
0F
#325000
b00000011 C
1F
#330000
0F
#335000
b00000100 C
1F
#340000
1$
0F
#345000
b1000 8
b00000101 C
1F
#350000
0F
#355000
b0000010 7
b1000 9
1<
b00000110 C
1F
#360000
0F
#365000
1,
b01 3
b0000010 6
b00000000 C
1F
#370000
0F
#375000
b00000001 C
1F
#380000
0F
#385000
b00000010 C
1F
#390000
0$
0F
#395000
b0000 8
b00000011 C
1F
#400000
1'
0F
#405000
b0001 8
b0000 9
0<
b00000100 C
1F
#410000
0F
#415000
b0000001 7
b0001 9
1?
b00000101 C
1F
#420000
0F
#425000
0,
b00 3
b0000001 6
b00000000 C
1F
#430000
0F
#435000
b00000001 C
1F
#440000
0F
#445000
b00000010 C
1F
#450000
0'
0F
#455000
b0000 8
b00000011 C
1F
#460000
0F
#465000
0#
b00000000000000000000000000010000 +
b0000 9
b000 :
b000 ;
0?
0@
0A
0B
b00000000 C
1F
#470000
0F
#475000
1F
#480000
0F
#485000
1F
#490000
0F
#495000
1F
#500000
0F
#505000
1F
#510000
0F
#515000
1F
#520000
1#
0F
#525000
b111 :
b00000001 C
1F
#530000
0F
#535000
b111 ;
1@
1A
1B
b00000010 C
1F
#540000
0F
#545000
b00000011 C
1F
#550000
0F
#555000
b00000100 C
1F
#560000
1%
0F
#565000
b0100 8
b00000101 C
1F
#570000
0F
#575000
b0010000 7
b0100 9
1=
b00000110 C
1E
1F
#580000
0F
#585000
1/
b10 3
14
b0010000 6
b00000000 C
1F
#590000
0F
#595000
10
b00000001 C
1F
#600000
0F
#605000
b00000010 C
1F
#610000
0%
b00000000000000000000000000010011 +
0F
#615000
00
b0000100 7
b0000 8
b00000011 C
0E
1F
#620000
0F
#625000
1,
1-
b01 2
04
b0000100 6
b0000 9
0=
b00000000 C
1F
#630000
0F
#635000
0#
b00000000000000000000000000011001 +
0,
0-
0/
b11 2
b00 3
b0000001 6
b0000001 7
b000 :
b000 ;
0@
0A
0B
1F
#640000
0F
#645000
1F
#650000
0F
#655000
1F
#660000
0F
#665000
1F
#670000
0F
#675000
1F
#680000
0F
#685000
1F
#690000
1#
0F
#695000
b111 :
b00000001 C
1F
#700000
0F
#705000
b111 ;
1@
1A
1B
b00000010 C
1F
#710000
0F
#715000
b00000011 C
1F
#720000
0F
#725000
0*
b110 :
b00000100 C
1F
#730000
1%
0F
#735000
b0100 8
b110 ;
0B
b00000101 C
1F
#740000
0F
#745000
b0010000 7
b0100 9
1=
b00000110 C
1E
1F
#750000
0F
#755000
1/
b10 3
14
b0010000 6
b00000000 C
1F
#760000
0F
#765000
10
b00000001 C
1F
#770000
0F
#775000
b00000010 C
1F
#780000
0%
b00000000000000000000000000011010 +
0F
#785000
00
b0000 8
b00000011 C
1F
#790000
0F
#795000
b0000 9
0=
b00000100 C
1F
#800000
0F
#805000
b00000101 C
1F
#810000
0F
#815000
b00000110 C
1F
#820000
0F
#825000
b00000111 C
1F
#830000
0F
#835000
b00001000 C
1F
#840000
0F
#845000
b00001001 C
1F
#850000
0F
#855000
b00001010 C
1F
#860000
0F
#865000
b00001011 C
1F
#870000
0F
#875000
b00001100 C
1F
#880000
0F
#885000
b00001101 C
1F
#890000
0F
#895000
b00001110 C
1F
#900000
0F
#905000
b0000001 7
b00001111 C
1D
0E
1F
#910000
0F
#915000
0/
b00 3
04
15
b0000001 6
b00000000 C
0D
1F
#920000
0F
#925000
b00000000000000000000000000011100 +
05
b00000001 C
1F
#930000
0F
#935000
b00000010 C
1F
#940000
0F
#945000
b00000011 C
1F
#950000
0F
#955000
0#
1*
b00000000000000000000000000011101 +
b000 :
b000 ;
0@
0A
b00000000 C
1F
#960000
0F
#965000
1F
#970000
0F
#975000
1F
#980000
0F
#985000
1F
#990000
0F
#995000
1F
#1000000
0F
#1005000
1F
#1010000
1#
0F
#1015000
b111 :
b00000001 C
1F
#1020000
0F
#1025000
b111 ;
1@
1A
1B
b00000010 C
1F
#1030000
0F
#1035000
b00000011 C
1F
#1040000
0F
#1045000
b00000100 C
1F
#1050000
1&
0F
#1055000
b0010 8
b00000101 C
1F
#1060000
0F
#1065000
b0100000 7
b0010 9
1>
b00000110 C
1E
1F
#1070000
0F
#1075000
b11 3
14
b0100000 6
b00000000 C
1F
#1080000
0F
#1085000
10
b00000001 C
1F
#1090000
0F
#1095000
b00000010 C
1F
#1100000
0&
b00000000000000000000000000011111 +
0F
#1105000
00
b0000 8
b00000011 C
1F
#1110000
0F
#1115000
b0000 9
0>
b00000100 C
1F
#1120000
0F
#1125000
b0001000 7
b00000101 C
0E
1F
#1130000
0F
#1135000
1,
1-
1.
04
b0001000 6
b00000000 C
1F
#1140000
0F
#1145000
0#
b00000000000000000000000000100101 +
0,
0-
0.
b00 3
b0000001 6
b0000001 7
b000 :
b000 ;
0@
0A
0B
1F
#1150000
0F
#1155000
1F
#1160000
0F
#1165000
1F
#1170000
0F
#1175000
1F
#1180000
0F
#1185000
1F
#1190000
0F
#1195000
1F
#1200000
1#
0F
#1205000
b111 :
b00000001 C
1F
#1210000
0F
#1215000
b111 ;
1@
1A
1B
b00000010 C
1F
#1220000
0F
#1225000
b00000011 C
1F
#1230000
0F
#1235000
b00000100 C
1F
#1240000
1&
0F
#1245000
b0010 8
b00000101 C
1F
#1250000
0F
#1255000
b0100000 7
b0010 9
1>
b00000110 C
1E
1F
#1260000
0F
#1265000
b11 3
14
b0100000 6
b00000000 C
1F
#1270000
0F
#1275000
10
b00000001 C
1F
#1280000
0F
#1285000
b00000010 C
1F
#1290000
0&
0F
#1295000
00
b0000 8
b00000011 C
1F
#1300000
0F
#1305000
b0000 9
0>
b00000100 C
1F
#1310000
0F
#1315000
b0001000 7
b00000101 C
0E
1F
#1320000
0F
#1325000
1,
1-
1.
04
b0001000 6
b00000000 C
1F
#1330000
0F
#1335000
b00000001 C
1F
#1340000
1'
0F
#1345000
b0001 8
b00000010 C
1F
#1350000
0F
#1355000
b1000000 7
b0001 9
1?
b00000011 C
1E
1F
#1360000
0F
#1365000
0,
0-
0.
b00 3
14
b1000000 6
b00000000 C
1F
#1370000
0F
#1375000
1.
b00000001 C
1F
#1380000
0F
#1385000
0.
1/
11
b00000010 C
1F
#1390000
0'
b00000000000000000000000000100111 +
0F
#1395000
b0000001 7
b0000 8
b00000011 C
0E
1F
#1400000
0F
#1405000
0/
01
04
b0000001 6
b0000 9
0?
b00000000 C
1F
#1410000
0F
#1415000
0#
b00000000000000000000000000101010 +
b000 :
b000 ;
0@
0A
0B
1F
#1420000
0F
#1425000
1F
#1430000
0F
#1435000
1F
#1440000
0F
#1445000
1F
#1450000
0F
#1455000
1F
#1460000
0F
#1465000
1F
#1470000
1#
0F
#1475000
b111 :
b00000001 C
1F
#1480000
0F
#1485000
b111 ;
1@
1A
1B
b00000010 C
1F
#1490000
0F
#1495000
b00000011 C
1F
#1500000
0F
#1505000
b00000100 C
1F
#1510000
1%
0F
#1515000
b0100 8
b00000101 C
1F
#1520000
0F
#1525000
b0010000 7
b0100 9
1=
b00000110 C
1E
1F
#1530000
0F
#1535000
1/
b10 3
14
b0010000 6
b00000000 C
1F
#1540000
0F
#1545000
10
b00000001 C
1F
#1550000
0F
#1555000
b00000010 C
1F
#1560000
0%
0F
#1565000
00
b0000100 7
b0000 8
b00000011 C
0E
1F
#1570000
0F
#1575000
1,
1-
b01 2
04
b0000100 6
b0000 9
0=
b00000000 C
1F
#1580000
0F
#1585000
b00000000000000000000000000101011 +
b00000001 C
1F
#1590000
1&
0F
#1595000
b0010 8
b00000010 C
1F
#1600000
0F
#1605000
b0100000 7
b0010 9
1>
b00000011 C
1E
1F
#1610000
0F
#1615000
0,
0-
0/
b11 2
b11 3
14
b0100000 6
b00000000 C
1F
#1620000
0F
#1625000
10
b00000001 C
1F
#1630000
0F
#1635000
b00000010 C
1F
#1640000
0&
0F
#1645000
00
b0000 8
b00000011 C
1F
#1650000
0F
#1655000
0#
b00000000000000000000000000101100 +
b00 3
04
b0000001 6
b0000001 7
b0000 9
b000 :
b000 ;
0>
0@
0A
0B
b00000000 C
0E
1F
#1660000
0F
#1665000
1F
#1670000
0F
#1675000
1F
#1680000
0F
#1685000
1F
#1690000
0F
#1695000
1F
#1700000
0F
#1705000
1F
#1710000
1#
0F
#1715000
b111 :
b00000001 C
1F
#1720000
0F
#1725000
b111 ;
1@
1A
1B
b00000010 C
1F
#1730000
0F
#1735000
b00000011 C
1F
#1740000
0F
#1745000
b00000100 C
1F
#1750000
1%
1&
0F
#1755000
b0110 8
b00000101 C
1F
#1760000
0F
#1765000
b0100000 7
b0110 9
1=
1>
b00000110 C
1E
1F
#1770000
0F
#1775000
b11 3
14
b0100000 6
b00000000 C
1F
#1780000
0F
#1785000
10
b00000001 C
1F
#1790000
0F
#1795000
b00000010 C
1F
#1800000
0%
0&
0F
#1805000
00
b0000 8
b00000011 C
1F
#1810000
0F
#1815000
0#
b00000000000000000000000000101101 +
b00 3
04
b0000001 6
b0000001 7
b0000 9
b000 :
b000 ;
0=
0>
0@
0A
0B
b00000000 C
0E
1F
#1820000
0F
#1825000
1F
#1830000
0F
#1835000
1F
#1840000
0F
#1845000
1F
#1850000
0F
#1855000
1F
#1860000
0F
#1865000
1F
#1870000
1#
0F
#1875000
b111 :
b00000001 C
1F
#1880000
0F
#1885000
b111 ;
1@
1A
1B
b00000010 C
1F
#1890000
0F
#1895000
b00000011 C
1F
#1900000
0F
#1905000
0*
b110 :
b00000100 C
1F
#1910000
1%
0F
#1915000
b0100 8
b110 ;
0B
b00000101 C
1F
#1920000
0F
#1925000
b0010000 7
b0100 9
1=
b00000110 C
1E
1F
#1930000
0F
#1935000
1/
b10 3
14
b0010000 6
b00000000 C
1F
#1940000
0F
#1945000
10
b00000001 C
1F
#1950000
0F
#1955000
b00000010 C
1F
#1960000
0%
b00000000000000000000000000101110 +
0F
#1965000
00
b0000 8
b00000011 C
1F
#1970000
0#
0/
b00 3
04
b0000001 6
b0000001 7
b0000 9
b000 :
b000 ;
0=
0@
0A
b00000000 C
0E
0F
#1975000
1F
#1980000
0F
#1985000
1F
#1990000
0F
#1995000
1F
#2000000
0F
#2005000
1F
#2010000
1#
0F
#2015000
b110 :
b00000001 C
1F
#2020000
0F
#2025000
b110 ;
1@
1A
b00000010 C
1F
#2030000
0F
#2035000
b00000011 C
1F
#2040000
0F
#2045000
b00000100 C
1F
#2050000
0F
#2055000
0#
1*
b00000000000000000000000000110010 +
b000 :
b000 ;
0@
0A
b00000000 C
1F
#2060000
0F
#2065000
1F
#2070000
0F
#2075000
1F
#2080000
0F
#2085000
1F
#2090000
0F
#2095000
1F
#2100000
0F
#2105000
1F
#2110000
1#
0F
#2115000
b111 :
b00000001 C
1F
#2120000
0F
#2125000
b111 ;
1@
1A
1B
b00000010 C
1F
#2130000
0F
#2135000
b00000011 C
1F
#2140000
0F
#2145000
b00000100 C
1F
#2150000
1%
0F
#2155000
b0100 8
b00000101 C
1F
#2160000
0F
#2165000
b0010000 7
b0100 9
1=
b00000110 C
1E
1F
#2170000
0F
#2175000
1/
b10 3
14
b0010000 6
b00000000 C
1F
#2180000
0F
#2185000
10
b00000001 C
1F
#2190000
0F
#2195000
b00000010 C
1F
#2200000
0%
0F
#2205000
00
b0000100 7
b0000 8
b00000011 C
0E
1F
#2210000
0F
#2215000
1,
1-
b01 2
04
b0000100 6
b0000 9
0=
b00000000 C
1F
#2220000
0F
#2225000
b00000001 C
1F
#2230000
0(
0)
0F
#2235000
b001 :
b00000010 C
1F
#2240000
0F
#2245000
b001 ;
0@
0A
b00000011 C
1F
#2250000
0F
#2255000
b00000100 C
1F
#2260000
0F
#2265000
b00000101 C
1F
#2270000
1'
0F
#2275000
b0001 8
b00000110 C
1F
#2280000
0F
#2285000
b1000000 7
b0001 9
1?
b00000111 C
1E
1F
#2290000
0F
#2295000
0,
0-
0/
b11 2
b00 3
14
b1000000 6
b00000000 C
1F
#2300000
0F
#2305000
1.
b00000001 C
1F
#2310000
0F
#2315000
0.
1/
11
b00000010 C
1F
#2320000
0'
b00000000000000000000000000110011 +
0F
#2325000
b0000 8
b00000011 C
1F
#2330000
0F
#2335000
0/
01
b0000 9
0?
b00000100 C
1F
#2340000
0F
#2345000
b00000101 C
1F
#2350000
0F
#2355000
b00000110 C
1F
#2360000
0F
#2365000
b00000111 C
1F
#2370000
0F
#2375000
b00001000 C
1F
#2380000
0F
#2385000
b00001001 C
1F
#2390000
0F
#2395000
b00001010 C
1F
#2400000
0F
#2405000
b00001011 C
1F
#2410000
0F
#2415000
b00001100 C
1F
#2420000
0F
#2425000
b00001101 C
1F
#2430000
0F
#2435000
b00001110 C
1F
#2440000
0F
#2445000
b00001111 C
1F
#2450000
0F
#2455000
b00010000 C
1F
#2460000
0F
#2465000
b00010001 C
1F
#2470000
0F
#2475000
b00010010 C
1F
#2480000
0F
#2485000
b00010011 C
1F
#2490000
0F
#2495000
b00010100 C
1F
#2500000
0F
#2505000
b00010101 C
1F
#2510000
0F
#2515000
b00010110 C
1F
#2520000
0F
#2525000
b00010111 C
1F
#2530000
0F
#2535000
b00011000 C
1F
#2540000
0F
#2545000
b00011001 C
1F
#2550000
0F
#2555000
b00011010 C
1F
#2560000
0F
#2565000
b00011011 C
1F
#2570000
0F
#2575000
b00011100 C
1F
#2580000
0F
#2585000
b00011101 C
1F
#2590000
0F
#2595000
b00011110 C
1F
#2600000
0F
#2605000
b0000001 7
b00011111 C
1D
0E
1F
#2610000
0F
#2615000
04
15
b0000001 6
b00000000 C
0D
1F
#2620000
0F
#2625000
b00000000000000000000000000110101 +
05
b00000001 C
1F
#2630000
1(
1)
0F
#2635000
b111 :
b00000010 C
1F
#2640000
0F
#2645000
b111 ;
1@
1A
b00000011 C
1F
#2650000
0F
#2655000
b00000100 C
1F
#2660000
0F
#2665000
b00000101 C
1F
#2670000
0F
#2675000
0#
b00000000000000000000000000110110 +
b000 :
b000 ;
0@
0A
0B
b00000000 C
1F
#2680000
0F
#2685000
1F
#2690000
0F
#2695000
1F
#2700000
0F
#2705000
1F
#2710000
0F
#2715000
1F
#2720000
0F
#2725000
1F
#2730000
1#
0F
#2735000
b111 :
b00000001 C
1F
#2740000
0F
#2745000
b111 ;
1@
1A
1B
b00000010 C
1F
#2750000
0F
#2755000
b00000011 C
1F
#2760000
0F
#2765000
b00000000000000000000000000110111 +
b00000100 C
1F
#2770000
1%
0F
#2775000
b0100 8
b00000101 C
1F
#2780000
0F
#2785000
b0010000 7
b0100 9
1=
b00000110 C
1E
1F
#2790000
0F
#2795000
1/
b10 3
14
b0010000 6
b00000000 C
1F
#2800000
0F
#2805000
10
b00000001 C
1F
#2810000
0F
#2815000
b00000010 C
1F
#2820000
0%
0F
#2825000
00
b0000100 7
b0000 8
b00000011 C
0E
1F
#2830000
0F
#2835000
1,
1-
b01 2
04
b0000100 6
b0000 9
0=
b00000000 C
1F
#2840000
0F
#2845000
b00000001 C
1F
#2850000
0F
#2855000
b00000010 C
1F
#2860000
0F
#2865000
0#
b00000000000000000000000000111000 +
0,
0-
0/
b11 2
b00 3
b0000001 6
b0000001 7
b000 :
b000 ;
0@
0A
0B
b00000000 C
1F
#2870000
0F
#2875000
1F
#2880000
0F
#2885000
1F
#2890000
0F
#2895000
1F
#2900000
0F
#2905000
1F
#2910000
0F
#2915000
1F
#2920000
1#
0F
#2925000
b111 :
b00000001 C
1F
#2930000
0F
#2935000
b111 ;
1@
1A
1B
b00000010 C
1F
#2940000
0F
#2945000
b00000011 C
1F
#2950000
0F
#2955000
b00000100 C
1F
#2960000
1%
0F
#2965000
b0100 8
b00000101 C
1F
#2970000
0F
#2975000
b0010000 7
b0100 9
1=
b00000110 C
1E
1F
#2980000
0F
#2985000
1/
b10 3
14
b0010000 6
b00000000 C
1F
#2990000
0F
#2995000
10
b00000001 C
1F
#3000000
0F
#3005000
b00000010 C
1F
#3010000
0%
b00000000000000000000000000111001 +
0F
#3015000
00
b0000100 7
b0000 8
b00000011 C
0E
1F
#3020000
0F
#3025000
0#
b00000000000000000000000000111011 +
0/
b00 3
04
b0000001 6
b0000001 7
b0000 9
b000 :
b000 ;
0=
0@
0A
0B
b00000000 C
1F
#3030000
0F
#3035000
1F
#3040000
0F
#3045000
1F
#3050000
0F
#3055000
1F
#3060000
0F
#3065000
1F
#3070000
0F
#3075000
1F
#3080000
1#
0F
#3085000
b111 :
b00000001 C
1F
#3090000
0F
#3095000
b111 ;
1@
1A
1B
b00000010 C
1F
#3100000
0F
#3105000
b00000011 C
1F
#3110000
0F
#3115000
b00000100 C
1F
#3120000
1$
0F
#3125000
b1000 8
b00000101 C
1F
#3130000
0F
#3135000
b0000010 7
b1000 9
1<
b00000110 C
1F
#3140000
0F
#3145000
1,
b01 3
b0000010 6
b00000000 C
1F
#3150000
0F
#3155000
b00000001 C
1F
#3160000
0F
#3165000
b00000010 C
1F
#3170000
0$
b00000000000000000000000000111100 +
0F
#3175000
b0000 8
b00000011 C
1F
#3180000
1%
0F
#3185000
b0100 8
b0000 9
0<
b00000100 C
1F
#3190000
0F
#3195000
b0010000 7
b0100 9
1=
b00000101 C
1E
1F
#3200000
0F
#3205000
0,
1/
b10 3
14
b0010000 6
b00000000 C
1F
#3210000
0F
#3215000
10
b00000001 C
1F
#3220000
0F
#3225000
b00000010 C
1F
#3230000
0%
0F
#3235000
00
b0000100 7
b0000 8
b00000011 C
0E
1F
#3240000
0F
#3245000
b00000000000000000000000000111101 +
1,
1-
b01 2
04
b0000100 6
b0000 9
0=
b00000000 C
1F
